Sesión 12 - Periodismo de datos
…
#4 # Obtención de la muestra: 
muestra <- gatos %>% 
  rep_sample_n(size = 1000, # gatos entrevistados
               replace = T, # Misma probab. para todos. 
               reps = 10000) # 10000 VECES REPETIMOS EL MUESTREO

# Sacamos el porcentaje de gatos 
# a los que les gusta el whiskas. 
prop_gatos_gustan_whiskas <- muestra %>% 
  summarise(promedio_gatos_gusta_whiskas = mean(gusta_whiskas)) 

prop_gatos_gustan_whiskas

## # A tibble: 10,000 x 2
##    replicate promedio_gatos_gusta_whiskas
##        <int>                        <dbl>
##  1         1                        0.894
##  2         2                        0.895
##  3         3                        0.901
##  4         4                        0.886
##  5         5                        0.904
##  6         6                        0.897
##  7         7                        0.899
##  8         8                        0.905
##  9         9                        0.902
## 10        10                        0.883
## # … with 9,990 more rows
…
