Laboratorio 5 - Periodismo de Datos
…
Procesado de la base de datos.

# Cargamos la base de datos 
load("Admissions.RData")
(Ad  <- as_tibble(Admissions) %>% 
  rename(Admitido = Admit, 
         Sexo = Gender,
         Departamento = Dept) %>% 
  mutate(Admitido = case_when(Admitido == "Admitted" ~ 1, 
                              Admitido == "Rejected" ~ 0), 
         Sexo = case_when(Sexo == "Male" ~ 1, 
                          Sexo == "Female" ~ 2)
         )   )

## # A tibble: 4,526 x 3
##    Admitido  Sexo Departamento
##       <dbl> <dbl> <fct>       
##  1        1     1 A           
##  2        1     1 A           
##  3        1     1 A           
##  4        1     1 A           
##  5        1     1 A           
##  6        1     1 A           
##  7        1     1 A           
##  8        1     1 A           
##  9        1     1 A           
## 10        1     1 A           
## #  with 4,516 more rows
…
